<svg width="15" height="15" viewBox="0 0 15 15" xmlns="http://www.w3.org/2000/svg">
    <path
            d="M14.1177 7.56106V5.51485C14.1177 4.821 13.5795 4.25672 12.8995 4.202L10.9992 0.882889C10.8231 0.575918 10.5387 0.356515 10.1984 0.26541C9.85979 0.174926 9.50566 0.222448 9.20257 0.398857L2.68824 4.19133H1.54412C0.814183 4.19133 0.220581 4.78489 0.220581 5.51485V13.4559C0.220581 14.1858 0.814152 14.7794 1.54412 14.7794H12.7941C13.524 14.7794 14.1177 14.1858 14.1177 13.4559V11.4097C14.502 11.2726 14.7794 10.9088 14.7794 10.478V8.49274C14.7794 8.06194 14.502 7.69811 14.1177 7.56106ZM12.1305 4.19133H9.24652L11.4095 2.93205L12.1305 4.19133ZM11.0807 2.35778L7.9313 4.19133H6.62494L10.7541 1.7873L11.0807 2.35778ZM9.53569 0.970767C9.6853 0.883199 9.8601 0.859934 10.0272 0.90454C10.1962 0.949767 10.3371 1.05899 10.4246 1.21182L10.4253 1.21303L5.30978 4.19133H4.00349L9.53569 0.970767ZM13.4559 13.4559C13.4559 13.8207 13.1589 14.1176 12.7941 14.1176H1.54412C1.17932 14.1176 0.882365 13.8207 0.882365 13.4559V5.51485C0.882365 5.15005 1.17932 4.8531 1.54412 4.8531H12.7941C13.1589 4.8531 13.4559 5.15005 13.4559 5.51485V7.50011H11.4706C10.3758 7.50011 9.48528 8.39062 9.48528 9.48537C9.48528 10.5801 10.3758 11.4706 11.4706 11.4706H13.4559V13.4559ZM14.1177 10.478C14.1177 10.6606 13.9693 10.8089 13.7868 10.8089H11.4706C10.7406 10.8089 10.147 10.2153 10.147 9.48537C10.147 8.75544 10.7406 8.16185 11.4706 8.16185H13.7868C13.9693 8.16185 14.1177 8.31016 14.1177 8.49274V10.478Z"
            stroke-width="0.25"></path>
    <path
            d="M11.471 8.82357C11.1062 8.82357 10.8092 9.12053 10.8092 9.48532C10.8092 9.85011 11.1062 10.1471 11.471 10.1471C11.8358 10.1471 12.1327 9.85011 12.1327 9.48532C12.1327 9.12053 11.8358 8.82357 11.471 8.82357Z"
            stroke-width="0.25"></path>
</svg>