<svg className="mobile-no" xmlns="http://www.w3.org/2000/svg" viewBox="0 0 48 48">
    <path
            d="M4 10h7.09a6 6 0 0 0 11.82 0H44a1 1 0 0 0 0-2H22.91A6 6 0 0 0 11.09 8H4a1 1 0 0 0 0 2zM17 5a4 4 0 1 1-4 4A4 4 0 0 1 17 5zM44 23H36.91a6 6 0 0 0-11.82 0H4a1 1 0 0 0 0 2H25.09a6 6 0 0 0 11.82 0H44a1 1 0 0 0 0-2zM31 28a4 4 0 1 1 4-4A4 4 0 0 1 31 28zM44 38H22.91a6 6 0 0 0-11.82 0H4a1 1 0 0 0 0 2h7.09a6 6 0 0 0 11.82 0H44a1 1 0 0 0 0-2zM17 43a4 4 0 1 1 4-4A4 4 0 0 1 17 43z"
            data-name="Layer 15"/>
</svg>