<svg width="14" height="14" viewBox="0 0 14 14" xmlns="http://www.w3.org/2000/svg">
    <path d="M13.65 12.005L10.61 8.96c-.015-.015-.035-.025-.055-.04A5.753 5.753 0 005.75 0 5.757 5.757 0 00-.01 5.755a5.757 5.757 0 008.92 4.81c.015.015.03.035.045.05l3.04 3.04a1.168 1.168 0 101.655-1.65zm-7.9-2.49a3.759 3.759 0 01-3.76-3.76 3.759 3.759 0 117.52 0 3.762 3.762 0 01-3.76 3.76z"
          fill-rule="evenodd"/>
</svg>
