<svg xmlns="http://www.w3.org/2000/svg"
     width="30"
     height="30"
     viewBox="0 0 24 24"
     fill="none"
     stroke="#4D4D4D"
     stroke-width="1"
     stroke-linecap="round"
     stroke-linejoin="round">
    <polygon points="11 5 6 9 2 9 2 15 6 15 11 19 11 5"></polygon>
</svg>